[Thu Jan 08 2015 05:12:29 GMT+0900 (東京 (標準時))] Layer "appstore_link.png": Duplicate path: appstore_link.png
[Thu Jan 08 2015 05:12:29 GMT+0900 (東京 (標準時))] Layer "googleplay_link.png": Duplicate path: googleplay_link.png
[Thu Jan 08 2015 05:12:29 GMT+0900 (東京 (標準時))] Layer "picjumbo.com_IMG_3642 (1)": Expected end of input but "_" found.
[Thu Jan 08 2015 05:12:29 GMT+0900 (東京 (標準時))] Layer "picjumbo.com_IMG_3642 (1)": Expected end of input but "_" found.
