<?php

$modelName = $this->Companyviewlog->name;

// Get all department
$listCompany = MasterData::companies_all();
$listCompany = $this->Common->arrayKeyValue($listCompany, 'id', 'name');
// create breadcrumb
$pageTitle = __('Company view log list');
$this->Breadcrumb->setTitle($pageTitle)
        ->add(array(
            'name' => $pageTitle,
        ));

// create search form
$this->SearchForm->setModelName($modelName)
        ->setAttribute('type', 'get')
        ->addElement(array(
            'id' => 'company_id',
            'label' => __('Company'),
            'options' => $listCompany,
            'empty' => Configure::read('Config.StrChooseOne'),
            'autocomplete_combobox' => true,
        ))
        ->addElement(array(
            'id' => 'name',
            'label' => __('Username')
        ))
        ->addElement(array(
            'id' => 'nickname',
            'label' => __('Nickname')
        ))
        ->addElement(array(
            'id' => 'email',
            'label' => __('Email')
        ))
        ->addElement(array(
            'id' => 'date_from',
            'type' => 'text',
            'calendar' => true,
            'label' => __('Date from'),
        ))
        ->addElement(array(
            'id' => 'date_to',
            'type' => 'text',
            'calendar' => true,
            'label' => __('Date to'),
        ))
         ->addElement(array(
            'id' => 'sort',
            'label' => __('Sort'),
            'options' => array(
                'name-asc' => __('Name Asc'),
                'name-desc' => __('Name Desc'),
                'nickname-asc' => __('Nickname Asc'),
                'nickname-desc' => __('Nickname Desc'),
                'email-asc' => __('Email Asc'),
                'email-desc' => __('Email Desc'),
                'company_name-asc' => __('Company name Asc'),
                'company_name-desc' => __('Company name Desc'),
                'created-asc' => __('Created Asc'),
                'created-desc' => __('Created Desc'),
            ),
            'empty' => Configure::read('Config.StrChooseOne')
        ))
        ->addElement(array(
            'id' => 'limit',
            'label' => __('Limit'),
            'options' => Configure::read('Config.searchPageSize'),
        ))
        ->addElement(array(
            'type' => 'submit',
            'value' => __('Search'),
            'class' => 'btn btn-primary pull-right',
        ));

// create data table
$param = $this->getParams(array('page' => 1, 'limit' => Configure::read('Config.pageSize')));
list($total, $data) = Api::call(Configure::read('API.url_companyviewlogs_list'), $param, false, array(0, array()));
$this->Common->handleException(Api::getError());
$this->set('total', $total);
$this->set('limit', $param['limit']);
$this->SimpleTable->addColumn(array(
            'id' => 'user_name',
            'title' => __('Username'),
            'width' => '200'    
        ))
        ->addColumn(array(
            'id' => 'user_nickname',
            'title' => __('Nickname'),
            'width'=>'200'
        ))
        ->addColumn(array(
            'id'=>'user_email',
            'title'=>__('Email'),
            'width'=>'200'
        ))
        ->addColumn(array(
            'id'=>'company_name',
            'title'=>__('Company name'),
        ))
        ->addColumn(array(
            'id' => 'created',
            'type' => 'date',
            'title' => __('Created'),
            'width'=>'120'
        ))
        ->setDataset($data);

